面板数据回归
…
```r
library(dplyr)
Fatalities %>% group_by(state) %>% summarize(mean(fatal_rate))
> # A tibble: 48 x 2
>    state `mean(fatal_rate)`
>    <fct>              <dbl>
>  1 al                  2.41
>  2 az                  2.71
>  3 ar                  2.44
>  4 ca                  1.90
>  5 co                  1.87
>  6 ct                  1.46
>  7 de                  2.07
>  8 fl                  2.48
>  9 ga                  2.40
> 10 id                  2.57
> # ... with 38 more rows
```
…
